{
    "name": "Device",
    "fields": [
        {
            "fieldName": "nameDevice",
            "fieldType": "String"
        },
        {
            "fieldName": "codeDevice",
            "fieldType": "String"
        },
        {
            "fieldName": "producer",
            "fieldType": "String"
        },
        {
            "fieldName": "codeProducer",
            "fieldType": "String"
        },
        {
            "fieldName": "userId",
            "fieldType": "Long"
        },
        {
            "fieldName": "status",
            "fieldType": "Long"
        },
        {
            "fieldName": "startDateIm",
            "fieldType": "Instant"
        },
        {
            "fieldName": "startUserUse",
            "fieldType": "Instant"
        }
    ],
    "relationships": [],
    "changelogDate": "20200311101500",
    "entityTableName": "device",
    "dto": "no",
    "pagination": "no",
    "service": "no",
    "jpaMetamodelFiltering": false,
    "fluentMethods": true,
    "readOnly": false,
    "embedded": false,
    "clientRootFolder": "",
    "applications": "*"
}